
]--- Logging Started ------[
24/02/17 15:51.25: RunTimeError Directory=[/home/mattyp/project/cfml/webapps/openbd/WEB-INF/bluedragon/work/temp/rtelogs], Max=[100]
24/02/17 15:51.25: BlueDragon WorkingDirectory=[/home/mattyp/project/cfml/webapps/openbd/WEB-INF/bluedragon/work]
24/02/17 15:51.25: BlueDragon TempDirectory=[/home/mattyp/project/cfml/webapps/openbd/WEB-INF/bluedragon/work/temp]
24/02/17 15:51.25: OutgoingMailServer started mainDirectory=/home/mattyp/project/cfml/webapps/openbd/WEB-INF/bluedragon/work/cfmail
24/02/17 15:51.25: CollectionFactory.init(): no <cfcollection> found in configuration
24/02/17 15:51.25: BlueDragon server is starting up...
24/02/17 15:51.25: Product Version: 3.1
24/02/17 15:51.25: Build date: 2014-03-30 22:33:45 GMT
24/02/17 15:51.25: tagChecker loaded: 140 tags
24/02/17 15:51.25: cfmlFileCache Configuration. Caching=1000 files; trusted cache=false
24/02/17 15:51.25: cfmlFileCache.loadCustomTagMappings [CF_] >> [/WEB-INF/customtags]
24/02/17 15:51.25: cfmlFileCache.loadCFMappings: no CF mappings defined.
24/02/17 15:51.25: -] Java CFX Mapping created [CFX_JavaBlueDragonHello] >> [com.newatlanta.BlueDragonHello]
24/02/17 15:51.25: -] C++ CFX Mapping created [CFX_NativeBlueDragonHello] >> [/WEB-INF/customtags/BlueDragonHello.dll]
24/02/17 15:51.25: PluginManager Auto Discovery (openbdplugin-XXXX.jar) ...
24/02/17 15:51.25: ... found: 0 plugins
24/02/17 15:51.25: cfEngine: Using default character encoding utf-8
24/02/17 15:51.25: cfEngine: WebResourcePath /home/mattyp/project/cfml/webapps/openbd/WEB-INF/webresources
24/02/17 15:51.25: cfEngine: server.system.nativelibdir=[/WEB-INF/bin/x64/]
24/02/17 15:51.25: queryBatchServer started: /home/mattyp/project/cfml/webapps/openbd/WEB-INF/bluedragon/work/cfquerybatch
24/02/17 15:51.25: CFQUERY Connection pool validation queries: ENABLED
24/02/17 15:51.25: MemoryDiskCache.function: MaxSize: 100
24/02/17 15:51.25: MemoryDiskCache.function: Directory set: /home/mattyp/project/cfml/webapps/openbd/WEB-INF/bluedragon/work/cache-function
24/02/17 15:51.25: MemoryDiskCache.function: Directory cleaned
24/02/17 15:51.25: MemoryDiskCache.default: MaxSize: 25
24/02/17 15:51.25: MemoryDiskCache.default: Directory set: /home/mattyp/project/cfml/webapps/openbd/WEB-INF/bluedragon/work/cache-default
24/02/17 15:51.25: MemoryDiskCache.default: Directory cleaned
24/02/17 15:51.25: MemoryDiskCache.cfquery: MaxSize: 200
24/02/17 15:51.25: MemoryDiskCache.cfquery: Directory set: /home/mattyp/project/cfml/webapps/openbd/WEB-INF/bluedragon/work/cache-cfquery
24/02/17 15:51.25: MemoryDiskCache.cfquery: Directory cleaned
24/02/17 15:51.25: CFIMAP Caching Engine Initialised.
24/02/17 15:51.25: cfChart: storage=file; size=0
24/02/17 15:51.25: ScheduleEngine: Started. Initial Tasks=0
24/02/17 15:51.25: scheduleEngine started; logfile=/home/mattyp/project/cfml/webapps/openbd/WEB-INF/bluedragon/work/cfschedule/schedule.log
24/02/17 15:51.26: PlugIn.Load.Installed: org.alanwilliamson.openbd.plugin.spreadsheet.SpreadSheetExtension; SpreadSheet; Version=1.2011.11.4
24/02/17 15:51.26: PlugIn.Load.Installed: org.alanwilliamson.openbd.plugin.cfsmtp.SmtpExtension; CFSMTP; Version=1.2011.11.4
24/02/17 15:51.26: [LoginPlugin] <server>.<plugin>.<login>.<userfield>: no userfield specified
24/02/17 15:51.26: PlugIn.Load.Installed: org.aw20.plugin.login.LoginExtension; LoginExtension; Version=1.2011.11.4
24/02/17 15:51.26: PlugIn.Load.Installed: org.alanwilliamson.openbd.plugin.crontab.CronExtension; CronTab; Version=1.2011.11.4
24/02/17 15:51.26: PlugIn.Load.Installed: com.bluedragon.mongo.MongoExtension; MongoExtension; Version=1.2011.11.4
24/02/17 15:51.26: PlugIn.Load.Installed: org.alanwilliamson.openbd.plugin.salesforce.SalesForceExtension; SalesForce; Version=1.2177
24/02/17 15:51.26: PlugIn.Load.Installed: com.bluedragon.vision.VisionExtension; Vision; Version=1.2177
24/02/17 15:51.26: PlugIn.Load.Installed: com.bluedragon.profiler.ProfilerExtension; Profiler; Version=1.2392
24/02/17 15:51.26: cfApplicationManager.DefaultClientStorage=[cookie]; J2EE Sessions=false
24/02/17 15:51.26: MemoryDiskCache.cfcachecontent: MaxSize: 50
24/02/17 15:51.26: MemoryDiskCache.cfcachecontent: Directory set: /home/mattyp/project/cfml/webapps/openbd/WEB-INF/bluedragon/work/cache-cfcachecontent
24/02/17 15:51.26: MemoryDiskCache.cfcachecontent: Directory cleaned
24/02/17 15:51.26: cfSCRIPT Registered: language=java; class=org.alanwilliamson.lang.java.cfSCRIPTJava
24/02/17 15:51.26: cfSCRIPT Registered: language=javascript; class=org.alanwilliamson.lang.javascript.cfSCRIPTJavascript
24/02/17 15:51.26: expressionEngine loaded: 688 functions
24/02/17 15:51.26: cfEngine: [server.system.debug] Show Debug output on error? true
24/02/17 15:51.26: cfEngine: [server.debugoutput.enabled] Show Debugger output? false
24/02/17 15:51.26: cfEngine: [server.system.strictarraypassbyreference] Strict Mode: ArrayPassByReference? false
24/02/17 15:51.26: cfEngine: [server.system.functionscopedvariables] Strict Mode: FunctionScopedVariables? false
24/02/17 15:51.26: cfEngine: [server.system.assert] Assertions disabled
24/02/17 15:51.26: cfEngine: [server.system.formurlcombined] Combined Form/Url Scope? false
24/02/17 15:51.26: cfEngine: [server.system.legacyformvalidation] Legacy server side form validation? false
24/02/17 15:51.26: cfEngine: JSON Encoding Defaults: server.system.jsoncase=maintain; server.system.jsondate=long
24/02/17 15:51.26: cfEngine: [server.system.formurlmaintaincase] Case Form/Url maintained? false
24/02/17 15:51.26: cfEngine: [server.system.cfoutputshorthand] <%= ... %> ? false
24/02/17 15:51.26: BlueDragon has initialised. Ready for requests.
24/02/17 15:51.26: /Server.cfc not available: /Server.cfc; exception:A request was made to a resource that could not be located
24/02/17 15:52.01: BlueDragon is being shut down ... 
24/02/17 15:52.01: OutgoingMailServer: Shutdown
24/02/17 15:52.01: -] mailSender: thread stop.
24/02/17 15:52.01: cfmlFileCache was flushed
24/02/17 15:52.01: cfmlFileCache was shutdown
24/02/17 15:52.01: cfQueryBatchServer: thread stop.
24/02/17 15:52.01: cfQueryBatchServer: Shutdown
24/02/17 15:52.01: CFIMAP Caching Engine closed open connections
24/02/17 15:52.01: cfApplicationManager has been shutdown
24/02/17 15:52.01: OutgoingMailServer: Shutdown
24/02/17 15:52.01: All logging has been shutdown
24/02/17 15:52.01: CacheFactory: All Cache Regions shutdown
24/02/17 15:52.01: BlueDragon has been successfully shutdown
